…
> cleanEx()
> nameEx("argument_glossary")
> ### * argument_glossary
> 
> flush(stderr()); flush(stdout())
> 
> ### Name: argument_glossary
> ### Title: Allowed argument names in tidiers
> ### Aliases: argument_glossary
> ### Keywords: datasets
> 
> ### ** Examples
> 
> argument_glossary
# A tibble: 55 x 3
   method  argument    description
   <chr>   <chr>       <chr>      
 1 glance  ...         ""         
 2 glance  deviance    ""         
 3 glance  diagnostics ""         
 4 glance  looic       ""         
 5 glance  mcmc        ""         
 6 glance  object      ""         
 7 glance  test        ""         
 8 glance  x           ""         
 9 augment ...         ""         
10 augment data        ""         
# … with 45 more rows
…
  term         estimate std.error statistic  p.value conf.low conf.high
  <chr>           <dbl>     <dbl>     <dbl>    <dbl>    <dbl>     <dbl>
1 (Intercept)  4.61e+ 0  4.45e- 2    104.   3.74e-56  4.52e+0  4.70e+ 0
2 income      -5.71e-10  2.33e-10     -2.44 1.84e- 2 -1.03e-9 -1.13e-10
> tidy(ivr, conf.int = TRUE, exponentiate = TRUE)
Warning in process_lm(ret, x, conf.int = conf.int, conf.level = conf.level,  :
  Exponentiating coefficients, but model did not use a log or logit link function.
# A tibble: 2 x 7
  term        estimate std.error statistic  p.value conf.low conf.high
  <chr>          <dbl>     <dbl>     <dbl>    <dbl>    <dbl>     <dbl>
1 (Intercept)  101.     4.45e- 2    104.   3.74e-56   92.2     110.   
2 income         1.000  2.33e-10     -2.44 1.84e- 2    1.000     1.000
> 
> augment(ivr)
# A tibble: 48 x 6
   .rownames log.packs.    income population .fitted  .resid
   <chr>          <dbl>     <dbl>      <dbl>   <dbl>   <dbl>
 1 49              4.62  83903280    4262731    4.56  0.0522
 2 50              4.71  45995496    2480121    4.59  0.124 
 3 51              4.28  88870496    4306908    4.56 -0.285 
 4 52              4.04 771470144   31493524    4.17 -0.131 
 5 53              4.41  92946544    3738061    4.56 -0.145 
 6 54              4.38 104315120    3265293    4.55 -0.177 
 7 55              4.82  18237436     718265    4.60  0.223 
 8 56              4.53 333525344   14185403    4.42  0.112 
 9 57              4.58 159800448    7188538    4.52  0.0591
10 58              4.53  60170928    2840860    4.58 -0.0512
# … with 38 more rows
…
> nameEx("augment.loess")
> ### * augment.loess
> 
> flush(stderr()); flush(stdout())
> 
> ### Name: augment.loess
> ### Title: Tidy a(n) loess object
> ### Aliases: augment.loess loess_tidiers
> 
> ### ** Examples
> 
> 
> lo <- loess(mpg ~ wt, mtcars)
> augment(lo)
# A tibble: 32 x 6
   .rownames           mpg    wt .fitted .se.fit  .resid
   <chr>             <dbl> <dbl>   <dbl>   <dbl>   <dbl>
 1 Mazda RX4          21    2.62    22.2   1.01  -1.24  
 2 Mazda RX4 Wag      21    2.88    21.1   1.07  -0.0786
 3 Datsun 710         22.8  2.32    24.6   1.03  -1.84  
 4 Hornet 4 Drive     21.4  3.22    19.5   0.861  1.91  
 5 Hornet Sportabout  18.7  3.44    17.9   0.755  0.779 
 6 Valiant            18.1  3.46    17.8   0.747  0.290 
 7 Duster 360         14.3  3.57    17.2   0.721 -2.89  
 8 Merc 240D          24.4  3.19    19.6   0.866  4.78  
 9 Merc 230           22.8  3.15    19.8   0.868  2.98  
10 Merc 280           19.2  3.44    17.9   0.755  1.28  
# … with 22 more rows
> 
> # with all columns of original data
> augment(lo, mtcars)
# A tibble: 32 x 15
   .rownames   mpg   cyl  disp    hp  drat    wt  qsec    vs    am  gear  carb
   <chr>     <dbl> <dbl> <dbl> <dbl> <dbl> <dbl> <dbl> <dbl> <dbl> <dbl> <dbl>
 1 Mazda RX4  21       6  160    110  3.9   2.62  16.5     0     1     4     4
 2 Mazda RX…  21       6  160    110  3.9   2.88  17.0     0     1     4     4
 3 Datsun 7…  22.8     4  108     93  3.85  2.32  18.6     1     1     4     1
 4 Hornet 4…  21.4     6  258    110  3.08  3.22  19.4     1     0     3     1
 5 Hornet S…  18.7     8  360    175  3.15  3.44  17.0     0     0     3     2
 6 Valiant    18.1     6  225    105  2.76  3.46  20.2     1     0     3     1
 7 Duster 3…  14.3     8  360    245  3.21  3.57  15.8     0     0     3     4
 8 Merc 240D  24.4     4  147.    62  3.69  3.19  20       1     0     4     2
 9 Merc 230   22.8     4  141.    95  3.92  3.15  22.9     1     0     4     2
10 Merc 280   19.2     6  168.   123  3.92  3.44  18.3     1     0     4     4
# … with 22 more rows, and 3 more variables: .fitted <dbl>, .se.fit <dbl>,
#   .resid <dbl>
…
> nameEx("augment.smooth.spline")
> ### * augment.smooth.spline
> 
> flush(stderr()); flush(stdout())
> 
> ### Name: augment.smooth.spline
> ### Title: Tidy a(n) smooth.spline object
> ### Aliases: augment.smooth.spline smooth.spline_tidiers
> 
> ### ** Examples
> 
> 
> spl <- smooth.spline(mtcars$wt, mtcars$mpg, df = 4)
> augment(spl, mtcars)
# A tibble: 32 x 13
     mpg   cyl  disp    hp  drat    wt  qsec    vs    am  gear  carb .fitted
   <dbl> <dbl> <dbl> <dbl> <dbl> <dbl> <dbl> <dbl> <dbl> <dbl> <dbl>   <dbl>
 1  21       6  160    110  3.9   2.62  16.5     0     1     4     4    22.9
 2  21       6  160    110  3.9   2.88  17.0     0     1     4     4    21.1
 3  22.8     4  108     93  3.85  2.32  18.6     1     1     4     1    25.3
 4  21.4     6  258    110  3.08  3.22  19.4     1     0     3     1    19.1
 5  18.7     8  360    175  3.15  3.44  17.0     0     0     3     2    17.8
 6  18.1     6  225    105  2.76  3.46  20.2     1     0     3     1    17.7
 7  14.3     8  360    245  3.21  3.57  15.8     0     0     3     4    17.1
 8  24.4     4  147.    62  3.69  3.19  20       1     0     4     2    19.2
 9  22.8     4  141.    95  3.92  3.15  22.9     1     0     4     2    19.5
10  19.2     6  168.   123  3.92  3.44  18.3     1     0     4     4    17.8
# … with 22 more rows, and 1 more variable: .resid <dbl>
> augment(spl)  # calls original columns x and y
# A tibble: 32 x 5
       x     y     w .fitted .resid
   <dbl> <dbl> <dbl>   <dbl>  <dbl>
 1  2.62  21       1    22.9 -1.87 
 2  2.88  21       1    21.1 -0.117
 3  2.32  22.8     1    25.3 -2.48 
 4  3.22  21.4     1    19.1  2.33 
 5  3.44  18.7     1    17.8  0.928
 6  3.46  18.1     1    17.7  0.437
 7  3.57  14.3     1    17.1 -2.79 
 8  3.19  24.4     1    19.2  5.19 
 9  3.15  22.8     1    19.5  3.35 
10  3.44  19.2     1    17.8  1.43 
# … with 22 more rows
…
> cleanEx()
> nameEx("column_glossary")
> ### * column_glossary
> 
> flush(stderr()); flush(stdout())
> 
> ### Name: column_glossary
> ### Title: Allowed column names in tidied tibbles
> ### Aliases: column_glossary
> ### Keywords: datasets
> 
> ### ** Examples
> 
> column_glossary
# A tibble: 33 x 4
   method column           description used_by  
   <chr>  <chr>            <chr>       <list>   
 1 glance sigma            ""          <chr [1]>
 2 glance logLik           ""          <chr [2]>
 3 glance AIC              ""          <chr [3]>
 4 glance BIC              ""          <chr [2]>
 5 glance pseudo.r.squared ""          <chr [1]>
 6 glance df.residual      ""          <chr [1]>
 7 glance df.null          ""          <chr [1]>
 8 glance r.squared        ""          <chr [1]>
 9 glance deviance         ""          <chr [1]>
10 glance power            ""          <chr [1]>
# … with 23 more rows
…
 1 mean      (Interc…   -6.16     1.82e-1    -33.8  3.44e-250 -6.63e+0   -5.69  
 2 mean      batch1      1.73     1.01e-1     17.1  2.59e- 65  1.47e+0    1.99  
 3 mean      batch2      1.32     1.18e-1     11.2  3.34e- 29  1.02e+0    1.63  
 4 mean      batch3      1.57     1.16e-1     13.5  8.81e- 42  1.27e+0    1.87  
 5 mean      batch4      1.06     1.02e-1     10.4  4.06e- 25  7.96e-1    1.32  
 6 mean      batch5      1.13     1.04e-1     11.0  6.52e- 28  8.67e-1    1.40  
 7 mean      batch6      1.04     1.06e-1      9.81 1.03e- 22  7.67e-1    1.31  
 8 mean      batch7      0.544    1.09e-1      4.98 6.29e-  7  2.63e-1    0.825 
 9 mean      batch8      0.496    1.09e-1      4.55 5.30e-  6  2.15e-1    0.776 
10 mean      batch9      0.386    1.19e-1      3.25 1.14e-  3  8.03e-2    0.691 
11 mean      temp        0.0110   4.13e-4     26.6  1.26e-155  9.90e-3    0.0120
12 precision (phi)     440.       1.10e+2      4.00 6.29e-  5  1.57e+2  724.    
> 
> augment(mod)
# A tibble: 32 x 6
   yield batch  temp .fitted .resid   .cooksd
   <dbl> <fct> <dbl>   <dbl>  <dbl>     <dbl>
 1 0.122 1       205  0.101   1.59  0.0791   
 2 0.223 1       275  0.195   1.66  0.0917   
 3 0.347 1       345  0.343   0.211 0.00155  
 4 0.457 1       407  0.508  -2.88  0.606    
 5 0.08  2       218  0.0797  0.109 0.0000168
 6 0.131 2       273  0.137  -0.365 0.00731  
 7 0.266 2       347  0.263   0.260 0.00523  
 8 0.074 3       212  0.0943 -1.77  0.0805   
 9 0.182 3       272  0.167   1.02  0.0441   
10 0.304 3       340  0.298   0.446 0.0170   
# … with 22 more rows
…
  term         estimate std.error statistic  p.value conf.low conf.high
  <chr>           <dbl>     <dbl>     <dbl>    <dbl>    <dbl>     <dbl>
1 (Intercept)  4.61e+ 0  4.45e- 2    104.   3.74e-56  4.52e+0  4.70e+ 0
2 income      -5.71e-10  2.33e-10     -2.44 1.84e- 2 -1.03e-9 -1.13e-10
> tidy(ivr, conf.int = TRUE, exponentiate = TRUE)
Warning in process_lm(ret, x, conf.int = conf.int, conf.level = conf.level,  :
  Exponentiating coefficients, but model did not use a log or logit link function.
# A tibble: 2 x 7
  term        estimate std.error statistic  p.value conf.low conf.high
  <chr>          <dbl>     <dbl>     <dbl>    <dbl>    <dbl>     <dbl>
1 (Intercept)  101.     4.45e- 2    104.   3.74e-56   92.2     110.   
2 income         1.000  2.33e-10     -2.44 1.84e- 2    1.000     1.000
> 
> augment(ivr)
# A tibble: 48 x 6
   .rownames log.packs.    income population .fitted  .resid
   <chr>          <dbl>     <dbl>      <dbl>   <dbl>   <dbl>
 1 49              4.62  83903280    4262731    4.56  0.0522
 2 50              4.71  45995496    2480121    4.59  0.124 
 3 51              4.28  88870496    4306908    4.56 -0.285 
 4 52              4.04 771470144   31493524    4.17 -0.131 
 5 53              4.41  92946544    3738061    4.56 -0.145 
 6 54              4.38 104315120    3265293    4.55 -0.177 
 7 55              4.82  18237436     718265    4.60  0.223 
 8 56              4.53 333525344   14185403    4.42  0.112 
 9 57              4.58 159800448    7188538    4.52  0.0591
10 58              4.53  60170928    2840860    4.58 -0.0512
# … with 38 more rows
…
> 
> 
> library(MASS)
> 
> r <- rlm(stack.loss ~ ., stackloss)
> tidy(r)
# A tibble: 4 x 4
  term        estimate std.error statistic
  <chr>          <dbl>     <dbl>     <dbl>
1 (Intercept)  -41.0       9.81     -4.18 
2 Air.Flow       0.829     0.111     7.46 
3 Water.Temp     0.926     0.303     3.05 
4 Acid.Conc.    -0.128     0.129    -0.992
> augment(r)
# A tibble: 21 x 9
   stack.loss Air.Flow Water.Temp Acid.Conc. .fitted .se.fit .resid   .hat
        <dbl>    <dbl>      <dbl>      <dbl>   <dbl>   <dbl>  <dbl>  <dbl>
 1         42       80         27         89    38.9   1.34   3.05  0.327 
 2         37       80         27         88    39.1   1.38  -2.08  0.343 
 3         37       75         25         90    32.8   1.02   4.18  0.155 
 4         28       62         24         87    21.5   0.875  6.50  0.0713
 5         18       62         22         87    19.6   0.558 -1.65  0.0562
 6         18       62         23         87    20.6   0.679 -2.57  0.0835
 7         19       62         24         93    20.7   1.14  -1.73  0.230 
 8         20       62         24         93    20.7   1.14  -0.731 0.230 
 9         15       58         23         87    17.3   0.914 -2.25  0.155 
10         14       58         18         80    13.5   1.09   0.481 0.213 
# … with 11 more rows, and 1 more variable: .sigma <dbl>
…
+   glance(clmm_mod)
+ }
Loading required package: ordinal
# A tibble: 1 x 4
    edf logLik   AIC   BIC
  <dbl>  <dbl> <dbl> <dbl>
1     7  -81.6  177.  193.
> if (require(MASS)) {
+   polr_mod <- polr(Sat ~ Infl + Type + Cont, weights = Freq, data = housing)
+   tidy(polr_mod, exponentiate = TRUE, conf.int = TRUE)
+   glance(polr_mod)
+   augment(polr_mod, type.predict = "class")
+ }
Loading required package: MASS
# A tibble: 72 x 6
   Sat    Infl   Type      Cont  X.weights. .fitted
   <ord>  <fct>  <fct>     <fct>      <int>   <dbl>
 1 Low    Low    Tower     Low           21       1
 2 Medium Low    Tower     Low           21       1
 3 High   Low    Tower     Low           28       1
 4 Low    Medium Tower     Low           34       3
 5 Medium Medium Tower     Low           22       3
 6 High   Medium Tower     Low           36       3
 7 Low    High   Tower     Low           10       3
 8 Medium High   Tower     Low           11       3
 9 High   High   Tower     Low           36       3
10 Low    Low    Apartment Low           61       1
# … with 62 more rows
…
3     8 <S3: lm>
> 
> regressions %>% tidy(mod)
# A tibble: 6 x 6
# Groups:   cyl [3]
    cyl term        estimate std.error statistic    p.value
  <dbl> <chr>          <dbl>     <dbl>     <dbl>      <dbl>
1     4 (Intercept)    39.6      4.35       9.10 0.00000777
2     4 wt             -5.65     1.85      -3.05 0.0137    
3     6 (Intercept)    28.4      4.18       6.79 0.00105   
4     6 wt             -2.78     1.33      -2.08 0.0918    
5     8 (Intercept)    23.9      3.01       7.94 0.00000405
6     8 wt             -2.19     0.739     -2.97 0.0118    
> regressions %>% augment(mod)
# A tibble: 32 x 10
# Groups:   cyl [3]
     cyl   mpg    wt .fitted .se.fit  .resid   .hat .sigma   .cooksd .std.resid
   <dbl> <dbl> <dbl>   <dbl>   <dbl>   <dbl>  <dbl>  <dbl>     <dbl>      <dbl>
 1     4  22.8  2.32    26.5    1.01 -3.67   0.0913   3.26 0.0670       -1.16  
 2     4  24.4  3.19    21.6    1.95  2.84   0.343    3.31 0.289         1.05  
 3     4  22.8  3.15    21.8    1.89  1.02   0.321    3.51 0.0325        0.370 
 4     4  32.4  2.2     27.1    1.02  5.25   0.0932   2.95 0.141         1.66  
 5     4  30.4  1.62    30.5    1.60 -0.0513 0.230    3.53 0.0000457    -0.0175
 6     4  33.9  1.84    29.2    1.31  4.69   0.154    3.04 0.212         1.53  
 7     4  21.5  2.46    25.7    1.06 -4.15   0.101    3.18 0.0968       -1.31  
 8     4  27.3  1.94    28.6    1.20 -1.34   0.129    3.50 0.0138       -0.432 
 9     4  26    2.14    27.5    1.04 -1.49   0.0975   3.49 0.0119       -0.470 
10     4  30.4  1.51    31.0    1.75 -0.627  0.275    3.52 0.00927      -0.221 
# … with 22 more rows
…
2     4 wt             -5.65     1.85      -3.05 0.0137        -9.83    -1.46 
3     6 (Intercept)    28.4      4.18       6.79 0.00105       17.7     39.2  
4     6 wt             -2.78     1.33      -2.08 0.0918        -6.21     0.651
5     8 (Intercept)    23.9      3.01       7.94 0.00000405    17.3     30.4  
6     8 wt             -2.19     0.739     -2.97 0.0118        -3.80    -0.582
> 
> # we can also include the original dataset as a "data" argument
> # to augment:
> regressions <- mtcars %>%
+     group_by(cyl) %>%
+     do(mod = lm(mpg ~ wt, .), original = (.))
> 
> # this allows all the original columns to be included:
> regressions %>% augment(mod)  # doesn't include all original
# A tibble: 32 x 10
# Groups:   cyl [3]
     cyl   mpg    wt .fitted .se.fit  .resid   .hat .sigma   .cooksd .std.resid
   <dbl> <dbl> <dbl>   <dbl>   <dbl>   <dbl>  <dbl>  <dbl>     <dbl>      <dbl>
 1     4  22.8  2.32    26.5    1.01 -3.67   0.0913   3.26 0.0670       -1.16  
 2     4  24.4  3.19    21.6    1.95  2.84   0.343    3.31 0.289         1.05  
 3     4  22.8  3.15    21.8    1.89  1.02   0.321    3.51 0.0325        0.370 
 4     4  32.4  2.2     27.1    1.02  5.25   0.0932   2.95 0.141         1.66  
 5     4  30.4  1.62    30.5    1.60 -0.0513 0.230    3.53 0.0000457    -0.0175
 6     4  33.9  1.84    29.2    1.31  4.69   0.154    3.04 0.212         1.53  
 7     4  21.5  2.46    25.7    1.06 -4.15   0.101    3.18 0.0968       -1.31  
 8     4  27.3  1.94    28.6    1.20 -1.34   0.129    3.50 0.0138       -0.432 
 9     4  26    2.14    27.5    1.04 -1.49   0.0975   3.49 0.0119       -0.470 
10     4  30.4  1.51    31.0    1.75 -0.627  0.275    3.52 0.00927      -0.221 
# … with 22 more rows
> regressions %>% augment(mod, data = original)  # includes all original
# A tibble: 32 x 18
# Groups:   cyl [3]
     mpg   cyl  disp    hp  drat    wt  qsec    vs    am  gear  carb .fitted
   <dbl> <dbl> <dbl> <dbl> <dbl> <dbl> <dbl> <dbl> <dbl> <dbl> <dbl>   <dbl>
 1  22.8     4 108      93  3.85  2.32  18.6     1     1     4     1    26.5
 2  24.4     4 147.     62  3.69  3.19  20       1     0     4     2    21.6
 3  22.8     4 141.     95  3.92  3.15  22.9     1     0     4     2    21.8
 4  32.4     4  78.7    66  4.08  2.2   19.5     1     1     4     1    27.1
 5  30.4     4  75.7    52  4.93  1.62  18.5     1     1     4     2    30.5
 6  33.9     4  71.1    65  4.22  1.84  19.9     1     1     4     1    29.2
 7  21.5     4 120.     97  3.7   2.46  20.0     1     0     3     1    25.7
 8  27.3     4  79      66  4.08  1.94  18.9     1     1     4     1    28.6
 9  26       4 120.     91  4.43  2.14  16.7     0     1     5     2    27.5
10  30.4     4  95.1   113  3.77  1.51  16.9     1     1     5     2    31.0
# … with 22 more rows, and 6 more variables: .se.fit <dbl>, .resid <dbl>,
#   .hat <dbl>, .sigma <dbl>, .cooksd <dbl>, .std.resid <dbl>
…
+   ) %>% 
+   select(-num_points, -cluster) %>%
+   tidyr::unnest(x1, x2)
> 
> m <- mclust::Mclust(points)
> 
> tidy(m)
# A tibble: 3 x 6
  component  size proportion variance mean.x1 mean.x2
      <int> <int>      <dbl>    <dbl>   <dbl>   <dbl>
1         1   101      0.335     1.12  5.01     -1.04
2         2   150      0.503     1.12  0.0594    1.00
3         3    49      0.161     1.12 -3.20     -2.06
> augment(m, points)
# A tibble: 300 x 4
      x1     x2 .class .uncertainty
   <dbl>  <dbl> <fct>         <dbl>
 1  6.91 -2.74  1          3.98e-11
 2  6.14 -2.45  1          1.99e- 9
 3  4.24 -0.946 1          1.47e- 4
 4  3.54  0.287 1          2.94e- 2
 5  3.91  0.408 1          7.48e- 3
 6  5.30 -1.58  1          4.22e- 7
 7  5.01 -1.77  1          1.06e- 6
 8  6.16 -1.68  1          7.64e- 9
 9  7.13 -2.17  1          4.16e-11
10  5.24 -2.42  1          1.16e- 7
# … with 290 more rows
…
> 
> fm1 <- aov(breaks ~ wool + tension, data = warpbreaks)
> thsd <- TukeyHSD(fm1, "tension", ordered = TRUE)
> tidy(thsd)
# A tibble: 3 x 6
  term    comparison estimate conf.low conf.high adj.p.value
  <chr>   <chr>         <dbl>    <dbl>     <dbl>       <dbl>
1 tension M-H            4.72   -4.63       14.1     0.447  
2 tension L-H           14.7     5.37       24.1     0.00112
3 tension L-M           10.      0.647      19.4     0.0336 
> 
> # may include comparisons on multiple terms
> fm2 <- aov(mpg ~ as.factor(gear) * as.factor(cyl), data = mtcars)
> tidy(TukeyHSD(fm2))
# A tibble: 42 x 6
   term                       comparison estimate conf.low conf.high adj.p.value
   <chr>                      <chr>         <dbl>    <dbl>     <dbl>       <dbl>
 1 as.factor(gear)            4-3           8.43     5.19      11.7   0.00000297
 2 as.factor(gear)            5-3           5.27     0.955      9.59  0.0147    
 3 as.factor(gear)            5-4          -3.15    -7.60       1.30  0.201     
 4 as.factor(cyl)             6-4          -5.40    -9.45      -1.36  0.00748   
 5 as.factor(cyl)             8-4          -5.23    -8.60      -1.86  0.00201   
 6 as.factor(cyl)             8-6           0.172   -3.70       4.04  0.993     
 7 as.factor(gear):as.factor… 4:4-3:4       5.42    -6.65      17.5   0.832     
 8 as.factor(gear):as.factor… 5:4-3:4       6.70    -7.24      20.6   0.778     
 9 as.factor(gear):as.factor… 3:6-3:4      -1.75   -15.7       12.2   1.000     
10 as.factor(gear):as.factor… 4:6-3:4      -1.75   -14.5       11.0   1.000     
# … with 32 more rows
…
